# Blender v2.91.0 OBJ File: ''
# www.blender.org
mtllib lightbulb.mtl
o Lightbulb
v 0.011666 0.118767 -0.035906
v -0.030544 0.118767 -0.022191
v -0.030544 0.118767 0.022191
v 0.011666 0.118767 0.035906
v 0.005806 0.184258 0.017869
v 0.037754 0.118767 0.000000
v 0.000000 -0.086556 -0.000000
v 0.057889 -0.042334 0.042058
v -0.022111 -0.042334 0.068052
v -0.071554 -0.042334 -0.000000
v -0.022111 -0.042334 -0.068052
v 0.057889 -0.042334 -0.042058
v 0.022111 0.030386 0.068052
v -0.057889 0.030386 0.042058
v -0.057889 0.030386 -0.042058
v 0.022111 0.030386 -0.068052
v 0.071554 0.030385 -0.000000
v -0.012996 -0.074609 0.040000
v 0.034026 -0.074609 0.024721
v 0.021030 -0.048615 0.064721
v 0.068052 -0.048615 -0.000000
v 0.034026 -0.074609 -0.024721
v -0.042058 -0.074609 -0.000000
v -0.055055 -0.048615 0.040000
v -0.012996 -0.074609 -0.040000
v -0.055055 -0.048615 -0.040000
v 0.021030 -0.048615 -0.064721
v 0.076085 -0.006556 0.024721
v 0.076085 -0.006556 -0.024721
v 0.000000 -0.006556 0.080000
v 0.047023 -0.006556 0.064721
v -0.076085 -0.006556 0.024721
v -0.047023 -0.006556 0.064721
v -0.047023 -0.006556 -0.064721
v -0.076085 -0.006556 -0.024721
v 0.047023 -0.006556 -0.064721
v 0.000000 -0.006556 -0.080000
v 0.055055 0.037600 0.040000
v -0.021030 0.037600 0.064721
v -0.068052 0.037600 -0.000000
v -0.021030 0.037600 -0.064721
v 0.055055 0.037600 -0.040000
v 0.012996 0.079887 0.040000
v 0.042058 0.079887 0.000000
v -0.034026 0.079887 0.024721
v -0.034026 0.079887 -0.024721
v 0.012996 0.079887 -0.040000
v 0.009410 0.125890 0.028960
v 0.030451 0.125889 0.000000
v -0.024635 0.125890 0.017898
v -0.024635 0.125890 -0.017898
v 0.009410 0.125890 -0.028960
v 0.018789 0.184258 0.000000
v -0.015201 0.184258 0.011044
v -0.015201 0.184258 -0.011044
v 0.005806 0.184258 -0.017869
v 0.009410 0.179904 0.028960
v -0.024635 0.179904 -0.017898
v -0.024635 0.179904 0.017898
v 0.030451 0.179904 0.000000
v 0.009410 0.179904 -0.028960
v 0.004203 0.190445 0.012935
v 0.013601 0.190445 0.000000
v -0.011003 0.190445 0.007994
v -0.011003 0.190445 -0.007994
v 0.004203 0.190445 -0.012935
v 0.000000 0.194883 0.000000
vt 0.295872 0.274818
vt 0.347653 0.284673
vt 0.353198 0.274818
vt 0.153041 0.033354
vt 0.190446 0.026345
vt 0.153041 0.024731
vt 0.278158 0.279772
vt 0.301417 0.284673
vt 0.370912 0.279772
vt 0.361940 0.288669
vt 0.106664 0.035356
vt 0.115636 0.026345
vt 0.403154 0.326420
vt 0.358913 0.339878
vt 0.403154 0.381463
vt 0.307225 0.362304
vt 0.305150 0.309761
vt 0.148022 0.483082
vt 0.190096 0.483082
vt 0.186660 0.443878
vt 0.125959 0.442441
vt 0.091881 0.480754
vt 0.259778 0.353825
vt 0.382494 0.433053
vt 0.346769 0.402555
vt 0.329743 0.452761
vt 0.098718 0.239525
vt 0.153042 0.246844
vt 0.121111 0.191999
vt 0.104889 0.390186
vt 0.161308 0.389276
vt 0.123722 0.340129
vt 0.324535 0.062784
vt 0.272870 0.056641
vt 0.292604 0.108273
vt 0.285500 0.411176
vt 0.207366 0.239525
vt 0.236638 0.194228
vt 0.184973 0.191999
vt 0.069446 0.194229
vt 0.065144 0.362919
vt 0.356466 0.108273
vt 0.277252 0.448352
vt 0.240939 0.405170
vt 0.244674 0.451195
vt 0.153041 0.144716
vt 0.204706 0.136679
vt 0.153041 0.083154
vt 0.065144 0.148509
vt 0.101377 0.136680
vt 0.101377 0.085384
vt 0.270211 0.157926
vt 0.240939 0.171531
vt 0.292604 0.224399
vt 0.378859 0.157925
vt 0.324535 0.166012
vt 0.356465 0.224398
vt 0.439676 0.430174
vt 0.403154 0.376683
vt 0.403154 0.433106
vt 0.476198 0.433105
vt 0.439676 0.367319
vt 0.439676 0.423741
vt 0.272870 0.229917
vt 0.087769 0.313126
vt 0.143943 0.307861
vt 0.122736 0.282968
vt 0.204706 0.085383
vt 0.240939 0.148508
vt 0.376199 0.229917
vt 0.408130 0.171531
vt 0.240939 0.111683
vt 0.408130 0.111683
vt 0.066528 0.426152
vt 0.184423 0.341567
vt 0.208160 0.392632
vt 0.376200 0.056641
vt 0.324535 0.024731
vt 0.121112 0.282968
vt 0.184973 0.282968
vt 0.361536 0.288669
vt 0.940969 0.184965
vt 0.855349 0.089725
vt 0.908555 0.170412
vt 0.767098 0.042244
vt 0.804209 0.129417
vt 0.801082 0.087809
vt 0.854741 0.054199
vt 0.838908 0.064791
vt 0.924996 0.195346
vt 0.967615 0.225375
vt 0.872069 0.220399
vt 0.911059 0.235259
vt 0.591293 0.225902
vt 0.565248 0.170408
vt 0.557483 0.198174
vt 0.696369 0.123527
vt 0.666526 0.196221
vt 0.700702 0.223949
vt 0.602020 0.063416
vt 0.602020 0.187545
vt 0.666526 0.050834
vt 0.663389 0.123527
vt 0.591294 0.025058
vt 0.565248 0.080553
vt 0.797694 0.583114
vt 0.598971 0.924698
vt 0.598971 0.583113
vt 0.201524 0.583114
vt 0.002803 0.924698
vt 0.002803 0.583114
vt 0.400247 0.583114
vt 0.400247 0.924699
vt 0.996417 0.924698
vt 0.797694 0.924699
vt 0.201525 0.924698
vt 0.534795 0.125480
vt 0.643035 0.123527
vt 0.557484 0.052787
vt 0.199418 0.035355
vt 0.287129 0.288669
vt 0.439676 0.367319
vt 0.476198 0.370251
vt 0.783239 0.101302
vt 0.828095 0.013789
vt 0.700702 0.023105
vt 0.996417 0.583114
vn 0.6227 0.6385 -0.4524
vn -0.2378 0.6385 0.7320
vn -0.2378 0.6385 -0.7320
vn 0.6227 0.6385 0.4524
vn -0.7696 0.6385 0.0000
vn 0.0519 -0.9858 0.1598
vn 0.2677 -0.9100 0.3165
vn -0.0305 -0.9100 0.4134
vn 0.7222 -0.5625 0.4026
vn 0.5709 -0.7671 0.2927
vn 0.7866 -0.6023 0.1360
vn -0.1359 -0.9858 0.0988
vn -0.2183 -0.9100 0.3524
vn -0.4026 -0.9100 0.0988
vn -0.1359 -0.9858 -0.0988
vn -0.4026 -0.9100 -0.0988
vn -0.2183 -0.9100 -0.3524
vn 0.0519 -0.9858 -0.1598
vn -0.0305 -0.9100 -0.4134
vn 0.2677 -0.9100 -0.3165
vn 0.8260 -0.3944 0.4026
vn 0.8905 -0.4342 0.1360
vn 0.9412 -0.1697 0.2922
vn -0.1276 -0.3944 0.9100
vn 0.1459 -0.4342 0.8889
vn 0.0130 -0.1697 0.9854
vn -0.9049 -0.3944 0.1598
vn -0.8003 -0.4342 0.4134
vn -0.9332 -0.1697 0.3168
vn -0.4316 -0.3944 -0.8112
vn -0.6405 -0.4342 -0.6334
vn -0.5897 -0.1697 -0.7896
vn 0.6382 -0.3944 -0.6612
vn 0.4045 -0.4342 -0.8049
vn 0.5687 -0.1697 -0.8048
vn 0.7741 -0.2905 0.5624
vn 0.8895 -0.0659 0.4521
vn 0.7048 -0.0659 0.7063
vn -0.2957 -0.2905 0.9100
vn -0.1551 -0.0659 0.9857
vn -0.4539 -0.0659 0.8886
vn -0.9569 -0.2905 0.0000
vn -0.9854 -0.0659 0.1571
vn -0.9854 -0.0659 -0.1571
vn -0.2957 -0.2905 -0.9100
vn -0.4539 -0.0659 -0.8886
vn -0.1551 -0.0659 -0.9857
vn 0.7741 -0.2905 -0.5624
vn 0.7048 -0.0659 -0.7063
vn 0.8895 -0.0659 -0.4521
vn 0.3972 0.4356 0.8077
vn 0.6229 0.4642 0.6297
vn 0.3912 0.4716 0.7902
vn -0.6455 0.4356 0.6274
vn -0.4064 0.4642 0.7870
vn -0.6307 0.4716 0.6163
vn -0.7961 0.4356 -0.4200
vn -0.8740 0.4642 -0.1434
vn -0.7810 0.4716 -0.4094
vn 0.1534 0.4356 -0.8870
vn -0.1338 0.4642 -0.8756
vn 0.1480 0.4716 -0.8693
vn 0.8910 0.4356 -0.1282
vn 0.7914 0.4642 -0.3978
vn 0.8725 0.4716 -0.1279
vn 0.8058 0.0892 0.5854
vn 0.7964 0.5557 -0.2386
vn 0.6868 0.5285 -0.4990
vn 0.4730 0.5557 -0.6837
vn 0.6229 0.4642 -0.6297
vn 0.3972 0.4356 -0.8077
vn 0.3912 0.4716 -0.7902
vn -0.3078 0.0892 -0.9473
vn 0.0192 0.5557 -0.8312
vn -0.2623 0.5285 -0.8074
vn -0.5041 0.5557 -0.6611
vn -0.4064 0.4642 -0.7870
vn -0.6455 0.4356 -0.6274
vn -0.6307 0.4716 -0.6163
vn -0.3078 0.0892 0.9473
vn -0.7846 0.5557 -0.2751
vn -0.8489 0.5285 0.0000
vn -0.7846 0.5557 0.2751
vn -0.8740 0.4642 0.1434
vn -0.7961 0.4356 0.4200
vn -0.7810 0.4716 0.4094
vn 0.8058 0.0892 -0.5854
vn -0.5041 0.5557 0.6611
vn -0.2623 0.5285 0.8074
vn 0.0192 0.5557 0.8312
vn -0.1338 0.4642 0.8756
vn 0.1534 0.4356 0.8870
vn 0.1480 0.4716 0.8693
vn -0.9960 0.0892 0.0000
vn 0.4730 0.5557 0.6837
vn 0.6868 0.5285 0.4990
vn 0.7964 0.5557 0.2386
vn 0.7914 0.4642 0.3978
vn 0.8910 0.4356 0.1282
vn 0.8725 0.4716 0.1279
vn 0.9359 0.1592 -0.3143
vn 0.8231 0.3745 -0.4269
vn 0.9246 0.3467 -0.1579
vn 0.8883 0.0888 -0.4507
vn 0.7031 0.0888 -0.7055
vn 0.7709 0.3032 -0.5601
vn 0.5881 0.1592 -0.7930
vn 0.4359 0.3467 -0.8306
vn 0.6604 0.3745 -0.6509
vn -0.0097 0.1592 -0.9872
vn -0.1516 0.3745 -0.9148
vn 0.1355 0.3467 -0.9281
vn -0.1542 0.0888 -0.9841
vn -0.4537 0.0888 -0.8867
vn -0.2945 0.3032 -0.9063
vn -0.5724 0.1592 -0.8044
vn -0.6552 0.3467 -0.6712
vn -0.4150 0.3745 -0.8292
vn -0.9419 0.1592 -0.2958
vn -0.9168 0.3745 -0.1385
vn -0.8408 0.3467 -0.4157
vn -0.9835 0.0888 -0.1575
vn -0.9835 0.0888 0.1575
vn -0.9529 0.3032 -0.0000
vn -0.9419 0.1592 0.2958
vn -0.8408 0.3467 0.4157
vn -0.9168 0.3745 0.1385
vn -0.5724 0.1592 0.8044
vn -0.4150 0.3745 0.8292
vn -0.6552 0.3467 0.6712
vn -0.4537 0.0888 0.8867
vn -0.1542 0.0888 0.9841
vn -0.2945 0.3032 0.9063
vn -0.0097 0.1592 0.9872
vn 0.1355 0.3467 0.9281
vn -0.1516 0.3745 0.9148
vn 0.5881 0.1592 0.7930
vn 0.6604 0.3745 0.6509
vn 0.4359 0.3467 0.8306
vn 0.7031 0.0888 0.7055
vn 0.8883 0.0888 0.4507
vn 0.7709 0.3032 0.5601
vn 0.9359 0.1592 0.3143
vn 0.9246 0.3467 0.1579
vn 0.8231 0.3745 0.4269
vn 0.4534 0.0595 -0.8893
vn 0.1560 0.0595 -0.9860
vn 0.2995 0.2459 -0.9219
vn 0.4527 -0.0976 -0.8863
vn 0.2880 -0.3627 -0.8863
vn 0.1547 -0.0976 -0.9831
vn 0.1459 -0.4342 -0.8889
vn -0.1276 -0.3944 -0.9100
vn 0.0130 -0.1697 -0.9854
vn -0.7057 0.0595 -0.7060
vn -0.8895 0.0595 -0.4530
vn -0.7842 0.2459 -0.5697
vn -0.7030 -0.0975 -0.7044
vn -0.7539 -0.3627 -0.5478
vn -0.8872 -0.0975 -0.4509
vn -0.8003 -0.4342 -0.4134
vn -0.9049 -0.3944 -0.1598
vn -0.9332 -0.1697 -0.3168
vn -0.8895 0.0595 0.4530
vn -0.7057 0.0595 0.7060
vn -0.7842 0.2459 0.5697
vn -0.8872 -0.0975 0.4509
vn -0.7539 -0.3627 0.5478
vn -0.7030 -0.0975 0.7044
vn -0.6405 -0.4342 0.6334
vn -0.4316 -0.3944 0.8112
vn -0.5897 -0.1697 0.7896
vn 0.1560 0.0595 0.9860
vn 0.4534 0.0595 0.8893
vn 0.2995 0.2459 0.9219
vn 0.1547 -0.0976 0.9831
vn 0.2880 -0.3627 0.8863
vn 0.4527 -0.0976 0.8863
vn 0.4045 -0.4342 0.8049
vn 0.6382 -0.3944 0.6612
vn 0.5687 -0.1697 0.8048
vn 0.9859 0.0595 0.1564
vn 0.9859 0.0595 -0.1564
vn 0.9693 0.2459 0.0000
vn 0.9828 -0.0976 0.1567
vn 0.9319 -0.3627 0.0000
vn 0.9828 -0.0976 -0.1567
vn 0.8905 -0.4342 -0.1360
vn 0.8260 -0.3944 -0.4026
vn 0.9412 -0.1697 -0.2922
vn 0.4548 -0.7671 -0.4525
vn 0.3724 -0.6023 -0.7061
vn 0.6061 -0.5625 -0.5624
vn 0.3117 -0.8365 -0.4506
vn 0.0128 -0.8365 -0.5477
vn 0.2290 -0.6713 -0.7049
vn -0.1019 -0.7671 -0.6334
vn -0.1597 -0.5625 -0.8113
vn 0.1138 -0.6023 -0.7901
vn -0.2898 -0.7671 -0.5724
vn -0.5565 -0.6023 -0.5724
vn -0.3476 -0.5625 -0.7502
vn -0.3323 -0.8365 -0.4356
vn -0.5170 -0.8365 -0.1814
vn -0.5996 -0.6713 -0.4356
vn -0.6339 -0.7671 -0.0988
vn -0.8209 -0.5625 -0.0988
vn -0.7163 -0.6023 -0.3524
vn -0.6339 -0.7671 0.0988
vn -0.7163 -0.6023 0.3524
vn -0.8209 -0.5625 0.0988
vn -0.5170 -0.8365 0.1814
vn -0.3323 -0.8365 0.4356
vn -0.5996 -0.6713 0.4356
vn -0.2898 -0.7671 0.5724
vn -0.3476 -0.5625 0.7502
vn -0.5565 -0.6023 0.5724
vn 0.7866 -0.6023 -0.1360
vn 0.5709 -0.7671 -0.2927
vn 0.7222 -0.5625 -0.4026
vn 0.7412 -0.6713 0.0000
vn 0.5249 -0.8365 0.1571
vn 0.5249 -0.8365 -0.1571
vn 0.3838 -0.9100 0.1567
vn 0.1680 -0.9858 -0.0000
vn 0.3838 -0.9100 -0.1567
vn -0.1019 -0.7671 0.6334
vn 0.1138 -0.6023 0.7901
vn -0.1597 -0.5625 0.8113
vn 0.0128 -0.8365 0.5477
vn 0.3117 -0.8365 0.4506
vn 0.2290 -0.6713 0.7049
vn 0.4548 -0.7671 0.4525
vn 0.6061 -0.5625 0.5624
vn 0.3724 -0.6023 0.7061
vn -0.1295 0.9080 0.3985
vn -0.1295 0.9080 -0.3985
vn 0.3390 0.9080 0.2463
vn -0.4190 0.9080 0.0000
vn 0.3390 0.9080 -0.2463
vn 0.6695 0.5614 0.4864
vn -0.8276 0.5614 0.0000
vn 0.6695 0.5614 -0.4864
vn -0.2557 0.5614 0.7871
vn -0.2557 0.5614 -0.7871
vn 0.8090 -0.0000 -0.5878
vn -1.0000 0.0000 0.0000
vn 0.8090 -0.0000 0.5878
vn -0.3090 0.0000 -0.9511
vn -0.3090 -0.0000 0.9511
vn 0.3026 0.9274 0.2198
vn -0.1156 0.9274 0.3557
vn -0.3740 0.9274 0.0000
vn -0.1156 0.9274 -0.3557
vn 0.3026 0.9274 -0.2198
usemtl Material
s off
f 1/1/1 49/2/1 6/3/1
f 3/4/2 48/5/2 50/6/2
f 2/7/3 52/8/3 1/1/3
f 4/9/4 49/2/4 48/10/4
f 2/11/5 50/6/5 51/12/5
f 7/13/6 19/14/7 18/15/8
f 8/16/9 19/14/10 21/17/11
f 7/18/12 18/19/13 23/20/14
f 7/18/15 23/20/16 25/21/17
f 7/18/18 25/21/19 22/22/20
f 8/16/21 21/17/22 28/23/23
f 9/24/24 20/25/25 30/26/26
f 10/27/27 24/28/28 32/29/29
f 11/30/30 26/31/31 34/32/32
f 12/33/33 27/34/34 36/35/35
f 8/16/36 28/23/37 31/36/38
f 9/37/39 30/38/40 33/39/41
f 10/27/42 32/29/43 35/40/44
f 11/30/45 34/32/46 37/41/47
f 12/33/48 36/35/49 29/42/50
f 13/43/51 38/44/52 43/45/53
f 14/46/54 39/47/55 45/48/56
f 15/49/57 40/50/58 46/51/59
f 16/52/60 41/53/61 47/54/62
f 17/55/63 42/56/64 44/57/65
f 43/58/66 6/59/66 4/60/66
f 44/57/67 42/56/68 47/54/69
f 42/56/70 16/52/71 47/54/72
f 47/61/73 2/62/73 1/63/73
f 47/54/74 41/53/75 46/64/76
f 41/65/77 15/66/78 46/67/79
f 43/68/80 3/4/80 45/48/80
f 46/51/81 40/50/82 45/48/83
f 40/50/84 14/46/85 45/48/86
f 47/54/87 6/3/87 44/57/87
f 45/48/88 39/47/89 43/68/90
f 39/47/91 13/69/92 43/68/93
f 45/48/94 2/11/94 46/51/94
f 43/70/95 38/71/96 44/57/97
f 38/71/98 17/55/99 44/57/100
f 29/42/101 42/56/102 17/55/103
f 29/42/104 36/35/105 42/56/106
f 36/35/107 16/52/108 42/56/109
f 37/72/110 41/53/111 16/52/112
f 37/41/113 34/32/114 41/65/115
f 34/32/116 15/66/117 41/65/118
f 35/40/119 40/50/120 15/49/121
f 35/40/122 32/29/123 40/50/124
f 32/29/125 14/46/126 40/50/127
f 33/39/128 39/47/129 14/46/130
f 33/39/131 30/38/132 39/47/133
f 30/38/134 13/69/135 39/47/136
f 31/36/137 38/44/138 13/43/139
f 31/36/140 28/23/141 38/44/142
f 28/73/143 17/55/144 38/71/145
f 36/35/146 37/72/147 16/52/148
f 36/35/149 27/34/150 37/72/151
f 27/74/152 11/30/153 37/41/154
f 34/32/155 35/75/156 15/66/157
f 34/32/158 26/31/159 35/75/160
f 26/31/161 10/76/162 35/75/163
f 32/29/164 33/39/165 14/46/166
f 32/29/167 24/28/168 33/39/169
f 24/28/170 9/37/171 33/39/172
f 30/26/173 31/36/174 13/43/175
f 30/26/176 20/25/177 31/36/178
f 20/25/179 8/16/180 31/36/181
f 28/73/182 29/42/183 17/55/184
f 28/73/185 21/77/186 29/42/187
f 21/77/188 12/33/189 29/42/190
f 22/78/191 27/34/192 12/33/193
f 22/22/194 25/21/195 27/74/196
f 25/21/197 11/30/198 27/74/199
f 25/21/200 26/31/201 11/30/202
f 25/21/203 23/20/204 26/31/205
f 23/20/206 10/76/207 26/31/208
f 23/79/209 24/28/210 10/27/211
f 23/79/212 18/80/213 24/28/214
f 18/80/215 9/37/216 24/28/217
f 21/77/218 22/78/219 12/33/220
f 21/17/221 19/14/222 22/81/223
f 19/14/224 7/13/225 22/81/226
f 18/15/227 20/25/228 9/24/229
f 18/15/230 19/14/231 20/25/232
f 19/14/233 8/16/234 20/25/235
f 59/82/236 5/83/236 54/84/236
f 58/85/237 56/86/237 61/87/237
f 57/88/238 53/89/238 5/83/238
f 59/82/239 55/90/239 58/91/239
f 61/87/240 53/92/240 60/93/240
f 5/94/241 63/95/241 62/96/241
f 54/97/242 65/98/242 55/99/242
f 56/100/243 63/95/243 53/101/243
f 54/97/244 62/102/244 64/103/244
f 55/104/245 66/105/245 56/100/245
f 52/106/246 60/107/246 49/108/246
f 50/109/247 58/110/247 51/111/247
f 48/112/248 60/107/248 57/113/248
f 52/106/249 58/114/249 61/115/249
f 48/112/250 59/116/250 50/109/250
f 62/96/251 63/95/251 67/117/251
f 64/103/252 62/102/252 67/118/252
f 65/98/253 64/103/253 67/118/253
f 66/105/254 65/119/254 67/117/254
f 63/95/255 66/105/255 67/117/255
f 1/1/1 52/8/1 49/2/1
f 3/4/2 4/120/2 48/5/2
f 2/7/3 51/121/3 52/8/3
f 4/9/4 6/3/4 49/2/4
f 2/11/5 3/4/5 50/6/5
f 43/58/66 44/122/66 6/59/66
f 47/61/73 46/123/73 2/62/73
f 43/68/80 4/120/80 3/4/80
f 47/54/87 1/1/87 6/3/87
f 45/48/94 3/4/94 2/11/94
f 59/82/236 57/88/236 5/83/236
f 58/85/237 55/124/237 56/86/237
f 57/88/238 60/125/238 53/89/238
f 59/82/239 54/84/239 55/90/239
f 61/87/240 56/86/240 53/92/240
f 5/94/241 53/101/241 63/95/241
f 54/97/242 64/103/242 65/98/242
f 56/100/243 66/105/243 63/95/243
f 54/97/244 5/126/244 62/102/244
f 55/104/245 65/119/245 66/105/245
f 52/106/246 61/115/246 60/107/246
f 50/109/247 59/116/247 58/110/247
f 48/112/248 49/108/248 60/107/248
f 52/106/249 51/127/249 58/114/249
f 48/112/250 57/113/250 59/116/250
