# Blender v2.91.0 OBJ File: ''
# www.blender.org
o Globe_Stand
v 0.000000 -0.000000 0.093069
v 0.017378 0.024024 0.010033
v 0.080600 -0.000000 0.046534
v -0.080600 0.000000 -0.046534
v -0.017378 0.024024 0.010033
v -0.080600 -0.000000 0.046534
v 0.080600 0.000000 -0.046534
v 0.017378 0.024024 -0.010033
v 0.000000 0.024024 0.020066
v 0.000000 0.000000 -0.093069
v -0.017378 0.024024 -0.010033
v 0.000000 0.024024 -0.020066
v 0.017378 0.098995 -0.010033
v 0.000000 0.098995 0.020066
v -0.017378 0.098995 -0.010033
v 0.000000 0.098995 -0.020066
v 0.017378 0.098995 0.010033
v -0.017378 0.098995 0.010033
v 0.000000 0.098995 -0.025051
v 0.000000 0.098995 0.025051
v 0.021695 0.098995 0.012526
v -0.021695 0.098995 0.012526
v 0.021695 0.098995 -0.012526
v -0.021695 0.098995 -0.012526
v 0.021695 0.148440 -0.012526
v 0.000000 0.148440 0.025051
v -0.021695 0.148440 -0.012526
v 0.000000 0.148440 -0.025051
v 0.021695 0.148440 0.012526
v -0.021695 0.148440 0.012526
vt 0.000000 0.000000
vt 0.000000 0.000000
vt 0.000000 0.000000
vt 0.000000 0.000000
vt 0.000000 0.000000
vt 0.000000 0.000000
vt 0.000000 0.000000
vt 0.000000 0.000000
vt 0.000000 0.000000
vt 0.000000 0.000000
vt 0.000000 0.000000
vt 0.000000 0.000000
vt 0.000000 0.000000
vt 0.000000 0.000000
vt 0.000000 0.000000
vt 0.000000 0.000000
vt 0.000000 0.000000
vt 0.000000 0.000000
vt 0.000000 0.000000
vt 0.000000 0.000000
vt 0.000000 0.000000
vt 0.000000 0.000000
vt 0.000000 0.000000
vt 0.000000 0.000000
vt 0.000000 0.000000
vt 0.000000 0.000000
vt 0.000000 0.000000
vt 0.000000 0.000000
vt 0.000000 0.000000
vt 0.000000 0.000000
vn 0.1776 0.9348 0.3076
vn -0.3552 0.9348 0.0000
vn 0.3552 0.9348 0.0000
vn -0.1776 0.9348 0.3076
vn -0.1776 0.9348 -0.3076
vn 0.1776 0.9348 -0.3076
vn 1.0000 -0.0000 0.0000
vn -0.5000 -0.0000 0.8660
vn -0.5000 0.0000 -0.8660
vn 0.5000 0.0000 -0.8660
vn 0.5000 -0.0000 0.8660
vn -1.0000 0.0000 0.0000
vn -0.0000 -1.0000 0.0000
vn 0.0000 1.0000 0.0000
s 1
f 1/1/1 3/2/1 2/3/1
f 4/4/2 6/5/2 5/6/2
f 7/7/3 8/8/3 2/3/3
f 6/5/4 1/1/4 9/9/4
f 10/10/5 4/4/5 11/11/5
f 7/7/6 10/10/6 12/12/6
f 2/3/7 8/8/7 13/13/7
f 5/6/8 9/9/8 14/14/8
f 12/12/9 11/11/9 15/15/9
f 8/8/10 12/12/10 16/16/10
f 9/9/11 2/3/11 17/17/11
f 11/11/12 5/6/12 18/18/12
f 13/13/13 16/16/13 19/19/13
f 17/17/13 21/20/13 20/21/13
f 15/15/13 18/18/13 22/22/13
f 13/13/13 23/23/13 21/20/13
f 18/18/13 14/14/13 20/21/13
f 16/16/13 15/15/13 24/24/13
f 21/20/7 23/23/7 25/25/7
f 22/22/8 20/21/8 26/26/8
f 19/19/9 24/24/9 27/27/9
f 23/23/10 19/19/10 28/28/10
f 20/21/11 21/20/11 29/29/11
f 24/24/12 22/22/12 30/30/12
f 29/29/14 30/30/14 26/26/14
f 1/1/1 2/3/1 9/9/1
f 4/4/2 5/6/2 11/11/2
f 7/7/3 2/3/3 3/2/3
f 6/5/4 9/9/4 5/6/4
f 10/10/5 11/11/5 12/12/5
f 7/7/6 12/12/6 8/8/6
f 2/3/7 13/13/7 17/17/7
f 5/6/8 14/14/8 18/18/8
f 12/12/9 15/15/9 16/16/9
f 8/8/10 16/16/10 13/13/10
f 9/9/11 17/17/11 14/14/11
f 11/11/12 18/18/12 15/15/12
f 13/13/13 19/19/13 23/23/13
f 17/17/13 20/21/13 14/14/13
f 15/15/13 22/22/13 24/24/13
f 13/13/13 21/20/13 17/17/13
f 18/18/13 20/21/13 22/22/13
f 16/16/13 24/24/13 19/19/13
f 21/20/7 25/25/7 29/29/7
f 22/22/8 26/26/8 30/30/8
f 19/19/9 27/27/9 28/28/9
f 23/23/10 28/28/10 25/25/10
f 20/21/11 29/29/11 26/26/11
f 24/24/12 30/30/12 27/27/12
f 30/30/14 28/28/14 27/27/14
f 28/28/14 30/30/14 25/25/14
f 25/25/14 30/30/14 29/29/14
